{
  "project_info": {
    "project_number": "977284278731",
    "firebase_url": "https://all-in-one-428a2.firebaseio.com",
    "project_id": "all-in-one-428a2",
    "storage_bucket": "all-in-one-428a2.appspot.com"
  },
  "client": [
    {
      "client_info": {
        "mobilesdk_app_id": "1:977284278731:android:b46233b3f1e4be7846ae4e",
        "android_client_info": {
          "package_name": "com.oneqlik.ionic"
        }
      },
      "oauth_client": [
        {
          "client_id": "977284278731-f470rtu94322i6q7o2j62sj0iic90vno.apps.googleusercontent.com",
          "client_type": 3
        }
      ],
      "api_key": [
        {
          "current_key": "AIzaSyDECzg9UDqUY8TYqi-G4S5-Yoh8Mu7C-bU"
        }
      ],
      "services": {
        "appinvite_service": {
          "other_platform_oauth_client": [
            {
              "client_id": "977284278731-f470rtu94322i6q7o2j62sj0iic90vno.apps.googleusercontent.com",
              "client_type": 3
            },
            {
              "client_id": "977284278731-tte5tfd98bqnvb1mem90806um8mtmmla.apps.googleusercontent.com",
              "client_type": 2,
              "ios_info": {
                "bundle_id": "com.SaminusGPS.ionic"
              }
            }
          ]
        }
      }
    },
    {
      "client_info": {
        "mobilesdk_app_id": "1:977284278731:android:e5a380e914d0e75246ae4e",
        "android_client_info": {
          "package_name": "io.oneqlikio.ioniclatest"
        }
      },
      "oauth_client": [
        {
          "client_id": "977284278731-f470rtu94322i6q7o2j62sj0iic90vno.apps.googleusercontent.com",
          "client_type": 3
        }
      ],
      "api_key": [
        {
          "current_key": "AIzaSyDECzg9UDqUY8TYqi-G4S5-Yoh8Mu7C-bU"
        }
      ],
      "services": {
        "appinvite_service": {
          "other_platform_oauth_client": [
            {
              "client_id": "977284278731-f470rtu94322i6q7o2j62sj0iic90vno.apps.googleusercontent.com",
              "client_type": 3
            },
            {
              "client_id": "977284278731-tte5tfd98bqnvb1mem90806um8mtmmla.apps.googleusercontent.com",
              "client_type": 2,
              "ios_info": {
                "bundle_id": "com.SaminusGPS.ionic"
              }
            }
          ]
        }
      }
    }
  ],
  "configuration_version": "1"
}